{
  "project_info": {
    "project_number": "497995645074",
    "firebase_url": "https://doneate-a318a.firebaseio.com",
    "project_id": "doneate-a318a",
    "storage_bucket": "doneate-a318a.appspot.com"
  },
  "client": [
    {
      "client_info": {
        "mobilesdk_app_id": "1:497995645074:android:5995cee23ef06e8e86264b",
        "android_client_info": {
          "package_name": "com.example.student.doneate"
        }
      },
      "oauth_client": [
        {
          "client_id": "497995645074-n8jat8kv0olj9uk1k6c294edolnuactq.apps.googleusercontent.com",
          "client_type": 1,
          "android_info": {
            "package_name": "com.example.student.doneate",
            "certificate_hash": "ab1b7cd5cab259764fbadb01bac7a0041b16f0e2"
          }
        },
        {
          "client_id": "497995645074-8fagb68sao3udkp28b9vv8f9nejm025v.apps.googleusercontent.com",
          "client_type": 3
        }
      ],
      "api_key": [
        {
          "current_key": "AIzaSyBshkvTi1PieyRwg3ZhBKUsCOcGAIwgjyM"
        }
      ],
      "services": {
        "appinvite_service": {
          "other_platform_oauth_client": [
            {
              "client_id": "497995645074-8fagb68sao3udkp28b9vv8f9nejm025v.apps.googleusercontent.com",
              "client_type": 3
            }
          ]
        }
      }
    }
  ],
  "configuration_version": "1"
}